simulation/qsim/trabFinal.msim.vcd
$comment
	File created using the following command:
		vcd file trabFinal.msim.vcd -direction
$end
$date
	Sun Feb 18 19:21:40 2024
$end
$version
	ModelSim Version 10.1d
$end
$timescale
	1ps
$end
$scope module trabFinal_vlg_vec_tst $end
$var reg 3 ! v [2:0] $end
$var reg 4 " x [3:0] $end
$var reg 4 # y [3:0] $end
$var wire 1 $ s [3] $end
$var wire 1 % s [2] $end
$var wire 1 & s [1] $end
$var wire 1 ' s [0] $end
$var wire 1 ( ZNCBV [4] $end
$var wire 1 ) ZNCBV [3] $end
$var wire 1 * ZNCBV [2] $end
$var wire 1 + ZNCBV [1] $end
$var wire 1 , ZNCBV [0] $end
$var wire 1 - sampler $end
$scope module i1 $end
$var wire 1 . gnd $end
$var wire 1 / vcc $end
$var wire 1 0 unknown $end
$var tri1 1 1 devclrn $end
$var tri1 1 2 devpor $end
$var tri1 1 3 devoe $end
$var wire 1 4 s[3]~output_o $end
$var wire 1 5 s[2]~output_o $end
$var wire 1 6 s[1]~output_o $end
$var wire 1 7 s[0]~output_o $end
$var wire 1 8 ZNCBV[4]~output_o $end
$var wire 1 9 ZNCBV[3]~output_o $end
$var wire 1 : ZNCBV[2]~output_o $end
$var wire 1 ; ZNCBV[1]~output_o $end
$var wire 1 < ZNCBV[0]~output_o $end
$var wire 1 = x[3]~input_o $end
$var wire 1 > x[2]~input_o $end
$var wire 1 ? x[1]~input_o $end
$var wire 1 @ x[0]~input_o $end
$var wire 1 A inst|inst|inst2|inst2~combout $end
$var wire 1 B y[3]~input_o $end
$var wire 1 C v[0]~input_o $end
$var wire 1 D v[1]~input_o $end
$var wire 1 E inst200|inst17~3_combout $end
$var wire 1 F y[2]~input_o $end
$var wire 1 G y[0]~input_o $end
$var wire 1 H y[1]~input_o $end
$var wire 1 I inst40|inst|inst1|inst4~combout $end
$var wire 1 J inst40|inst|inst2|inst4~combout $end
$var wire 1 K v[2]~input_o $end
$var wire 1 L inst200|inst17~0_combout $end
$var wire 1 M inst200|inst17~1_combout $end
$var wire 1 N inst2|inst22~0_combout $end
$var wire 1 O inst2|inst23~0_combout $end
$var wire 1 P inst40|inst|inst3|inst1~0_combout $end
$var wire 1 Q inst39|inst|inst1|inst4~0_combout $end
$var wire 1 R inst39|inst|inst3|inst1~combout $end
$var wire 1 S inst200|inst17~2_combout $end
$var wire 1 T inst200|inst17~4_combout $end
$var wire 1 U inst2|inst21~0_combout $end
$var wire 1 V inst200|inst17~5_combout $end
$var wire 1 W inst2|inst17~1_combout $end
$var wire 1 X inst2|inst17~2_combout $end
$var wire 1 Y inst2|inst23~combout $end
$var wire 1 Z inst40|inst|inst2|inst1~combout $end
$var wire 1 [ inst2|inst25~0_combout $end
$var wire 1 \ inst2|inst17~0_combout $end
$var wire 1 ] inst2|inst21~combout $end
$var wire 1 ^ inst2|inst17~3_combout $end
$var wire 1 _ inst6|inst17~1_combout $end
$var wire 1 ` inst6|inst17~2_combout $end
$var wire 1 a inst40|inst|inst1|inst1~combout $end
$var wire 1 b inst39|inst|inst1|inst1~combout $end
$var wire 1 c inst|inst|inst1|inst1~combout $end
$var wire 1 d inst6|inst17~0_combout $end
$var wire 1 e inst6|inst17~3_combout $end
$var wire 1 f inst6|inst17~4_combout $end
$var wire 1 g inst51|inst17~4_combout $end
$var wire 1 h inst51|inst17~5_combout $end
$var wire 1 i inst51|inst17~6_combout $end
$var wire 1 j inst57~0_combout $end
$var wire 1 k inst57~1_combout $end
$var wire 1 l inst52~combout $end
$upscope $end
$upscope $end
$enddefinitions $end
#0
$dumpvars
b0 !
b0 "
b0 #
0'
0&
0%
0$
0,
0+
1*
0)
0(
x-
0.
1/
x0
11
12
13
04
05
06
07
08
09
1:
0;
0<
0=
0>
0?
0@
0A
0B
0C
0D
0E
0F
0G
0H
1I
1J
0K
0L
0M
0N
0O
0P
0Q
0R
0S
0T
0U
0V
0W
0X
0Y
1Z
0[
0\
0]
0^
0_
0`
1a
0b
0c
0d
0e
0f
0g
0h
0i
0j
1k
0l
$end
#10000
b100 "
b110 "
b111 "
b1000 #
b1100 #
b1110 #
b1111 #
1G
1H
1F
1B
1@
1?
1>
0-
1h
1g
1b
1Q
1_
1j
1W
1R
1P
1A
0R
1`
1X
1i
17
1'
1f
1^
16
15
1&
1%
#20000
b1111 "
b1110 "
b1110 #
0G
0@
1=
1-
0h
0g
0b
1c
0P
1E
1R
1T
0i
07
0'
1V
14
1$
#30000
b1100 "
b1100 #
b100 "
b101 "
b1101 #
1G
0H
1@
0?
0=
0-
1h
1g
1b
0Q
0_
1P
0E
0R
0`
0T
1i
17
1'
0f
0V
1l
06
04
1<
0&
0$
1,
0l
0<
0,
#40000
b1101 "
b1100 "
b1100 #
0G
0@
1=
1-
0h
0g
0b
0c
0P
1E
1R
1T
0i
07
0'
1V
14
1$
#50000
b1 !
b1000 "
b1000 #
b1010 "
b1010 #
b10 "
b11 "
b1011 #
1G
1H
0F
1@
1?
0>
0=
1C
0-
1h
1g
1b
1Q
1_
0j
0W
0R
1P
0E
1R
1`
0X
0T
1i
0k
17
0:
1'
0*
1f
0^
0V
16
05
04
1&
0%
0$
#60000
b1011 "
b1010 "
b1010 #
0G
0@
1=
1-
0h
0g
0b
1c
0P
1E
1k
0R
1T
1:
1*
0i
07
0'
1V
14
1$
#70000
b1000 "
b1000 #
b0 "
b1 "
b1001 #
1G
0H
1@
0?
0=
0-
1h
1g
1b
0Q
0_
1P
0E
0k
1R
0`
0T
0:
0*
1i
17
1'
0f
0V
06
04
0&
0$
#80000
b1001 "
b1000 "
b1000 #
0G
0@
1=
1-
0h
0g
0b
0c
0A
0P
1E
1k
0R
1T
1:
1*
0i
07
0'
1V
14
1$
#90000
b0 #
b1100 "
b100 #
b1110 "
b110 #
b1111 "
b111 #
1@
1?
1>
1G
1H
1F
0B
0-
1h
1g
1b
1Q
1A
1_
1j
1W
1R
1P
0E
0R
1`
1X
0T
1i
17
1'
1f
1^
0V
16
15
04
1&
1%
0$
#100000
b11 !
b10 !
b111 "
b110 "
b110 #
0G
0@
0=
0C
1D
1-
0g
0b
1c
0P
1e
0k
1R
0:
0*
0i
07
0'
#110000
b100 "
b100 #
b1100 "
b1101 "
b101 #
1G
0H
1@
0?
1=
0-
0h
1g
1b
0Q
0e
0_
1P
1E
1k
0R
0`
1T
1:
1*
1i
17
1'
0f
1V
06
14
0&
1$
#120000
b101 "
b100 "
b100 #
0G
0@
0=
1-
1h
0g
0b
0c
0P
0E
0k
1R
0T
0:
0*
0i
07
0'
0V
04
0$
#130000
b0 "
b0 #
b10 "
b10 #
b1010 "
b1011 "
b11 #
1G
1H
0F
1@
1?
0>
1=
0-
0h
1g
1b
1Q
1e
1_
0j
0W
0R
1P
1E
1k
1R
1`
0X
1T
1:
1*
1i
17
1'
1f
0^
1V
16
05
14
1&
0%
1$
#140000
b11 "
b10 "
b10 #
0G
0@
0=
1-
1h
0g
0b
1c
0P
0E
0k
0R
0T
0:
0*
0i
07
0'
0V
04
0$
#150000
b11 !
b0 "
b0 #
b1000 "
b1001 "
b1 #
1G
0H
1@
0?
1=
1C
0-
0h
1g
1b
0Q
0e
1P
1W
1k
1i
1R
1X
1:
17
1*
1'
0i
07
0'
1^
15
1%
#160000
b1 "
b0 "
b0 #
0G
0@
0=
1-
1h
0g
0b
0c
0A
0P
1E
0k
0R
1T
0:
0*
1i
1k
17
1:
1'
1*
1V
14
1$
1l
1<
1,
#170000
b1000 #
b100 "
b1100 #
b110 "
b1110 #
b111 "
b1111 #
1@
1?
1>
1G
1H
1F
1B
0-
0h
1g
1b
1Q
1A
0_
1j
0W
1R
1P
0R
0`
0X
0i
07
0'
0f
0^
0l
06
05
0<
0&
0%
0,
#180000
b1111 "
b1110 "
b1110 #
0G
0@
1=
1-
1h
0g
0b
1c
0P
0E
1R
0T
1i
17
1'
0V
04
0$
#190000
b1100 "
b1100 #
b100 "
b101 "
b1101 #
1G
0H
1@
0?
0=
0-
0h
1g
1b
0Q
1_
1P
1E
0R
1`
1T
0i
07
0'
1f
1V
16
14
1&
1$
#200000
b111 !
b101 !
b100 !
b1101 "
b1100 "
b1100 #
0G
0@
1=
0C
0D
1K
1-
0g
0b
0c
0`
0P
0_
1W
1U
0T
1i
1R
1]
17
1'
0i
0f
0V
07
06
04
0'
0&
0$
1^
15
1%
#210000
b1000 "
b1000 #
b1010 "
b1010 #
b10 "
b11 "
b1011 #
1G
1H
0F
1@
1?
0>
0=
0-
1g
1b
1Q
1_
0j
0W
0R
1P
0E
1V
1R
14
1$
1i
0k
17
0:
1'
0*
#220000
b1011 "
b1010 "
b1010 #
0G
0@
1=
1-
0g
0b
1c
0P
1E
1k
0V
1d
0R
1:
04
1*
0$
0i
07
0'
1f
16
1&
#230000
b1000 "
b1000 #
b0 "
b1 "
b1001 #
1G
0H
1@
0?
0=
0-
1g
1b
0Q
0_
1P
0E
0k
1V
1R
0:
14
0*
1$
1i
17
1'
1l
1<
1,
#240000
b1001 "
b1000 "
b1000 #
0G
0@
1=
1-
0g
0b
0c
0]
0A
0P
1E
1k
0V
0d
0R
1:
04
1*
0$
0i
0^
1V
0l
07
05
14
0<
0'
0%
1$
0,
0f
06
0&
#250000
b0 #
b101 !
b1100 "
b100 #
b1110 "
b110 #
b1111 "
b111 #
1@
1?
1>
1C
1G
1H
1F
0B
0-
1g
1b
1Q
1A
1_
1j
1W
1R
0U
1O
0E
1P
1d
1Y
0R
1S
0V
0S
1T
04
0$
1f
1^
0T
16
15
1&
1%
1V
14
1$
0V
04
0$
#260000
b111 "
b110 "
b110 #
0G
0@
0=
1-
0g
0b
1c
0P
0k
0d
1R
0:
0*
1S
0f
1T
06
0&
1V
14
1$
#270000
b100 "
b100 #
b1100 "
b1101 "
b101 #
1G
0H
1@
0?
1=
0-
1g
1b
0Q
0_
1P
1k
1d
0Y
0R
1:
1*
0S
1f
0^
0T
16
05
1&
0%
0V
04
0$
#280000
b101 "
b100 "
b100 #
0G
0@
0=
1-
0g
0b
0c
0P
0k
0d
1R
0:
0*
1S
0f
1T
06
0&
1V
14
1$
#290000
b0 "
b0 #
b10 "
b10 #
b1010 "
b1011 "
b11 #
1G
1H
0F
1@
1?
0>
1=
0-
1g
1b
1Q
1_
0j
0W
0R
1P
1k
1d
1Y
1R
0S
1:
1*
1S
0T
1f
1^
1T
16
15
1&
1%
0V
04
0$
1V
14
1$
#300000
b111 !
b110 !
b11 "
b10 "
b10 #
0G
0@
0=
0C
1D
1-
0g
0b
1c
0P
1e
0O
1L
1[
0k
1i
0d
0R
0Y
0S
0:
17
0*
1'
0i
1l
0T
07
1<
0'
1,
0f
0^
0l
06
05
0<
0&
0%
0,
0V
04
0$
#310000
b0 "
b0 #
b1000 "
b1001 "
b1 #
1G
0H
1@
0?
1=
0-
1b
0Q
0_
1P
1M
1E
1k
1R
1T
1:
1*
1V
14
1$
#320000
b1 "
b0 "
b0 #
0G
0@
0=
1-
0b
0c
0A
0P
0M
0E
0k
0R
0T
0:
0*
1k
1:
1*
0V
04
0$
#330000
b1000 #
b100 "
b1100 #
b110 "
b1110 #
b111 "
b1111 #
1@
1?
1>
1G
1H
1F
1B
0-
1b
1Q
1A
1_
1j
1W
1R
1P
1M
1E
0R
1T
1V
14
1$
#340000
b1111 "
b1110 "
b1110 #
0G
0@
1=
1-
0b
1c
0P
0M
1R
0T
0V
04
0$
#350000
b111 !
b1100 "
b1100 #
b100 "
b101 "
b1101 #
1G
0H
1@
0?
0=
1C
0-
1b
0Q
0e
1P
1M
0W
1N
0L
0R
1T
1`
1S
0M
1V
1f
14
16
1$
1&
#360000
b1101 "
b1100 "
b1100 #
0G
0@
1=
1-
0b
0c
0`
0P
0E
1R
0f
06
0&
#370000
b1000 "
b1000 #
b1010 "
b1010 #
b10 "
b11 "
b1011 #
1G
1H
0F
1@
1?
0>
0=
0-
1b
1Q
0_
0j
1W
0R
1`
1\
0S
1P
1E
1R
0T
0k
1f
1^
0:
16
15
0*
1&
1%
0V
04
0$
#380000
b1011 "
b1010 "
b1010 #
0G
0@
1=
1-
0b
1c
0`
0P
0E
1k
0R
1:
1*
0f
06
0&
#390000
b1000 "
b1000 #
b0 "
b1 "
b1001 #
1G
0H
1@
0?
0=
0-
1b
0Q
1_
1`
0\
1P
1E
0k
1R
0:
0*
1f
0^
16
05
1&
0%
#400000
b11 !
b1 !
b0 !
b1001 "
b1000 "
b1000 #
0G
0@
1=
0C
0D
0K
1-
0b
0c
0A
0P
0_
0W
0N
0[
1X
1T
1k
0R
0`
0X
1:
1*
1V
1^
14
15
1$
1%
0f
0^
06
05
0&
0%
#410000
b0 #
b1100 "
b100 #
b1110 "
b110 #
b1111 "
b111 #
1@
1?
1>
1G
1H
1F
0B
0-
1h
1g
1b
1Q
1A
1_
1j
1W
1R
1P
0R
1`
1X
1i
17
1'
1f
1^
16
15
1&
1%
1l
1<
1,
#420000
b111 "
b110 "
b110 #
0G
0@
0=
1-
0h
0g
0b
1c
0P
0E
0k
1R
0T
0:
0*
0i
07
0'
0V
0l
04
0<
0$
0,
#430000
b100 "
b100 #
b1100 "
b1101 "
b101 #
1G
0H
1@
0?
1=
0-
1h
1g
1b
0Q
0_
1P
1E
1k
0R
0`
1T
1:
1*
1i
17
1'
0f
1V
06
14
0&
1$
#440000
b101 "
b100 "
b100 #
0G
0@
0=
1-
0h
0g
0b
0c
0P
0E
0k
1R
0T
0:
0*
0i
07
0'
0V
04
0$
#450000
b1 !
b0 "
b0 #
b10 "
b10 #
b1010 "
b1011 "
b11 #
1G
1H
0F
1@
1?
0>
1=
1C
0-
1h
1g
1b
1Q
1_
0j
0W
0R
1P
1k
1R
1`
0X
1:
1*
1i
17
1'
1f
0^
16
05
1&
0%
#460000
b11 "
b10 "
b10 #
0G
0@
0=
1-
0h
0g
0b
1c
0P
0k
0R
0:
0*
0i
07
0'
#470000
b0 "
b0 #
b1000 "
b1001 "
b1 #
1G
0H
1@
0?
1=
0-
1h
1g
1b
0Q
0_
1P
1k
1R
0`
1:
1*
1i
17
1'
0f
06
0&
#480000
b1 "
b0 "
b0 #
0G
0@
0=
1-
0h
0g
0b
0c
0A
0P
0k
0R
0:
0*
0i
1k
07
1:
0'
1*
#490000
b1000 #
b100 "
b1100 #
b110 "
b1110 #
b111 "
b1111 #
1@
1?
1>
1G
1H
1F
1B
0-
1h
1g
1b
1Q
1A
1_
1j
1W
1R
1P
0R
1`
1X
1i
17
1'
1f
1^
16
15
1&
1%
#500000
b11 !
b10 !
b1111 "
b1110 "
b1110 #
0G
0@
1=
0C
1D
1-
0g
0b
1c
0P
1E
1e
1L
1R
1T
0i
07
0'
1V
14
1$
#510000
b1100 "
b1100 #
b100 "
b101 "
b1101 #
1G
0H
1@
0?
0=
0-
0h
1g
1b
0Q
0e
0_
1P
1M
0R
0`
1i
17
1'
0f
1l
06
1<
0&
1,
0l
0<
0,
#520000
b1101 "
b1100 "
b1100 #
0G
0@
1=
1-
1h
0g
0b
0c
0P
0M
1R
0i
07
0'
#530000
b1000 "
b1000 #
b1010 "
b1010 #
b10 "
b11 "
b1011 #
1G
1H
0F
1@
1?
0>
0=
0-
0h
1g
1b
1Q
1e
1_
0j
0W
0R
1P
1M
1R
1`
0X
1i
0k
17
0:
1'
0*
1f
0^
16
05
1&
0%
#540000
b1011 "
b1010 "
b1010 #
0G
0@
1=
1-
1h
0g
0b
1c
0P
0M
1k
0R
1:
1*
0i
07
0'
#550000
b11 !
b1000 "
b1000 #
b0 "
b1 "
b1001 #
1G
0H
1@
0?
0=
1C
0-
0h
1g
1b
0Q
0e
1P
1M
1W
0L
0k
1i
1R
1X
0M
0:
17
0*
1'
0i
07
0'
1^
15
1%
#560000
b1001 "
b1000 "
b1000 #
0G
0@
1=
1-
1h
0g
0b
0c
0A
0P
0E
1k
0R
0T
1:
1*
1i
17
1'
0V
1l
04
1<
0$
1,
0l
0<
0,
#570000
b0 #
b1100 "
b100 #
b1110 "
b110 #
b1111 "
b111 #
1@
1?
1>
1G
1H
1F
0B
0-
0h
1g
1b
1Q
1A
0_
1j
0W
1R
1P
0R
0`
0X
0i
07
0'
0f
0^
06
05
0&
0%
#580000
b111 "
b110 "
b110 #
0G
0@
0=
1-
1h
0g
0b
1c
0P
1E
0k
1R
1T
0:
0*
1i
17
1'
1V
14
1$
#590000
b100 "
b100 #
b1100 "
b1101 "
b101 #
1G
0H
1@
0?
1=
0-
0h
1g
1b
0Q
1_
1P
0E
1k
0R
1`
0T
1:
1*
0i
07
0'
1f
0V
16
04
1&
0$
#600000
b111 !
b101 !
b100 !
b101 "
b100 "
b100 #
0G
0@
0=
0C
0D
1K
1-
0g
0b
0c
0`
0P
0_
1W
1U
0k
1i
1R
1]
0:
17
0*
1'
0i
0f
1V
07
06
14
0'
0&
1$
1^
15
1%
#610000
b0 "
b0 #
b10 "
b10 #
b1010 "
b1011 "
b11 #
1G
1H
0F
1@
1?
0>
1=
0-
1g
1b
1Q
1_
0j
0W
0R
1P
1E
1k
0V
1R
1:
04
1*
0$
1i
17
1'
#620000
b11 "
b10 "
b10 #
0G
0@
0=
1-
0g
0b
1c
0P
0E
0k
1V
1d
0R
0:
14
0*
1$
0i
07
0'
1f
16
1&
#630000
b0 "
b0 #
b1000 "
b1001 "
b1 #
1G
0H
1@
0?
1=
0-
1g
1b
0Q
0_
1P
1E
1k
0V
1R
1:
04
1*
0$
1i
17
1'
#640000
b1 "
b0 "
b0 #
0G
0@
0=
1-
0g
0b
0c
0]
0A
0P
0E
0k
1V
0d
0R
0:
14
0*
1$
0i
0^
1k
0V
1l
07
05
1:
04
1<
0'
0%
1*
0$
1,
0f
0l
06
0<
0&
0,
#650000
b1000 #
b101 !
b100 "
b1100 #
b110 "
b1110 #
b111 "
b1111 #
1@
1?
1>
1C
1G
1H
1F
1B
0-
1g
1b
1Q
1A
1_
1j
1W
1R
0U
1O
1P
1d
1Y
0R
1S
0S
1T
1f
1^
0T
16
15
1&
1%
1V
14
1$
0V
04
0$
#660000
b1111 "
b1110 "
b1110 #
0G
0@
1=
1-
0g
0b
1c
0P
1E
0d
1R
1S
0f
1T
06
0&
1V
14
1$
#670000
b1100 "
b1100 #
b100 "
b101 "
b1101 #
1G
0H
1@
0?
0=
0-
1g
1b
0Q
0_
1P
0E
1d
0Y
0R
0S
1f
0^
0T
16
05
1&
0%
0V
04
0$
#680000
b1101 "
b1100 "
b1100 #
0G
0@
1=
1-
0g
0b
0c
0P
1E
0d
1R
1S
0f
1T
06
0&
1V
14
1$
#690000
b1000 "
b1000 #
b1010 "
b1010 #
b10 "
b11 "
b1011 #
1G
1H
0F
1@
1?
0>
0=
0-
1g
1b
1Q
1_
0j
0W
0R
1P
0E
1d
1Y
1R
0S
0k
1S
0T
0:
0*
1f
1^
1T
16
15
1&
1%
0V
04
0$
1V
14
1$
#700000
b111 !
b110 !
b1011 "
b1010 "
b1010 #
0G
0@
1=
0C
1D
1-
0g
0b
1c
0P
1E
1e
0O
1L
1[
1k
1i
0d
0R
0Y
0S
1:
17
1*
1'
0i
1l
0T
07
1<
0'
1,
0f
0^
0l
06
05
0<
0&
0%
0,
0V
04
0$
#710000
b1000 "
b1000 #
b0 "
b1 "
b1001 #
1G
0H
1@
0?
0=
0-
1b
0Q
0_
1P
1M
0k
1R
1T
0:
0*
1V
14
1$
#720000
b1001 "
b1000 "
b1000 #
0G
0@
1=
1-
0b
0c
0A
0P
0M
1k
0R
0T
1:
1*
0V
04
0$
#730000
b0 #
b1100 "
b100 #
b1110 "
b110 #
b1111 "
b111 #
1@
1?
1>
1G
1H
1F
0B
0-
1b
1Q
1A
1_
1j
1W
1R
1P
1M
0R
1T
1V
14
1$
#740000
b111 "
b110 "
b110 #
0G
0@
0=
1-
0b
1c
0P
0M
0E
0k
1R
0T
0:
0*
0V
04
0$
#750000
b111 !
b100 "
b100 #
b1100 "
b1101 "
b101 #
1G
0H
1@
0?
1=
1C
0-
1b
0Q
0e
1P
1M
0W
1N
0L
1k
0R
1T
1`
1S
0M
1:
1*
1V
1f
14
16
1$
1&
#760000
b101 "
b100 "
b100 #
0G
0@
0=
1-
0b
0c
0`
0P
1E
0k
1R
0:
0*
0f
06
0&
#770000
b0 "
b0 #
b10 "
b10 #
b1010 "
b1011 "
b11 #
1G
1H
0F
1@
1?
0>
1=
0-
1b
1Q
0_
0j
1W
0R
1`
1\
0S
1P
0E
1k
1R
0T
1:
1*
1f
1^
16
15
1&
1%
0V
04
0$
#780000
b11 "
b10 "
b10 #
0G
0@
0=
1-
0b
1c
0`
0P
1E
0k
0R
0:
0*
0f
06
0&
#790000
b0 "
b0 #
b1000 "
b1001 "
b1 #
1G
0H
1@
0?
1=
0-
1b
0Q
1_
1`
0\
1P
0E
1k
1R
1:
1*
1f
0^
16
05
1&
0%
#800000
b11 !
b1 !
b0 !
b1 "
b0 "
b0 #
0G
0@
0=
0C
0D
0K
1-
0b
0c
0A
0P
0_
0W
0N
0[
1X
0k
0R
0`
0X
0:
0*
1k
1^
1:
15
1*
1%
0f
0^
06
05
0&
0%
#810000
b1000 #
b100 "
b1100 #
b110 "
b1110 #
b111 "
b1111 #
1@
1?
1>
1G
1H
1F
1B
0-
1h
1g
1b
1Q
1A
1_
1j
1W
1R
1P
0R
1`
1X
1i
17
1'
1f
1^
16
15
1&
1%
#820000
b1111 "
b1110 "
b1110 #
0G
0@
1=
1-
0h
0g
0b
1c
0P
1E
1R
1T
0i
07
0'
1V
14
1$
#830000
b1100 "
b1100 #
b100 "
b101 "
b1101 #
1G
0H
1@
0?
0=
0-
1h
1g
1b
0Q
0_
1P
0E
0R
0`
0T
1i
17
1'
0f
0V
1l
06
04
1<
0&
0$
1,
0l
0<
0,
#840000
b1101 "
b1100 "
b1100 #
0G
0@
1=
1-
0h
0g
0b
0c
0P
1E
1R
1T
0i
07
0'
1V
14
1$
#850000
b1 !
b1000 "
b1000 #
b1010 "
b1010 #
b10 "
b11 "
b1011 #
1G
1H
0F
1@
1?
0>
0=
1C
0-
1h
1g
1b
1Q
1_
0j
0W
0R
1P
0E
1R
1`
0X
0T
1i
0k
17
0:
1'
0*
1f
0^
0V
16
05
04
1&
0%
0$
#860000
b1011 "
b1010 "
b1010 #
0G
0@
1=
1-
0h
0g
0b
1c
0P
1E
1k
0R
1T
1:
1*
0i
07
0'
1V
14
1$
#870000
b1000 "
b1000 #
b0 "
b1 "
b1001 #
1G
0H
1@
0?
0=
0-
1h
1g
1b
0Q
0_
1P
0E
0k
1R
0`
0T
0:
0*
1i
17
1'
0f
0V
06
04
0&
0$
#880000
b1001 "
b1000 "
b1000 #
0G
0@
1=
1-
0h
0g
0b
0c
0A
0P
1E
1k
0R
1T
1:
1*
0i
07
0'
1V
14
1$
#890000
b0 #
b1100 "
b100 #
b1110 "
b110 #
b1111 "
b111 #
1@
1?
1>
1G
1H
1F
0B
0-
1h
1g
1b
1Q
1A
1_
1j
1W
1R
1P
0E
0R
1`
1X
0T
1i
17
1'
1f
1^
0V
16
15
04
1&
1%
0$
#900000
b11 !
b10 !
b111 "
b110 "
b110 #
0G
0@
0=
0C
1D
1-
0g
0b
1c
0P
1e
0k
1R
0:
0*
0i
07
0'
#910000
b100 "
b100 #
b1100 "
b1101 "
b101 #
1G
0H
1@
0?
1=
0-
0h
1g
1b
0Q
0e
0_
1P
1E
1k
0R
0`
1T
1:
1*
1i
17
1'
0f
1V
06
14
0&
1$
#920000
b101 "
b100 "
b100 #
0G
0@
0=
1-
1h
0g
0b
0c
0P
0E
0k
1R
0T
0:
0*
0i
07
0'
0V
04
0$
#930000
b0 "
b0 #
b10 "
b10 #
b1010 "
b1011 "
b11 #
1G
1H
0F
1@
1?
0>
1=
0-
0h
1g
1b
1Q
1e
1_
0j
0W
0R
1P
1E
1k
1R
1`
0X
1T
1:
1*
1i
17
1'
1f
0^
1V
16
05
14
1&
0%
1$
#940000
b11 "
b10 "
b10 #
0G
0@
0=
1-
1h
0g
0b
1c
0P
0E
0k
0R
0T
0:
0*
0i
07
0'
0V
04
0$
#950000
b11 !
b0 "
b0 #
b1000 "
b1001 "
b1 #
1G
0H
1@
0?
1=
1C
0-
0h
1g
1b
0Q
0e
1P
1W
1k
1i
1R
1X
1:
17
1*
1'
0i
07
0'
1^
15
1%
#960000
b1 "
b0 "
b0 #
0G
0@
0=
1-
1h
0g
0b
0c
0A
0P
1E
0k
0R
1T
0:
0*
1i
1k
17
1:
1'
1*
1V
14
1$
1l
1<
1,
#970000
b1000 #
b100 "
b1100 #
b110 "
b1110 #
b111 "
b1111 #
1@
1?
1>
1G
1H
1F
1B
0-
0h
1g
1b
1Q
1A
0_
1j
0W
1R
1P
0R
0`
0X
0i
07
0'
0f
0^
0l
06
05
0<
0&
0%
0,
#980000
b1111 "
b1110 "
b1110 #
0G
0@
1=
1-
1h
0g
0b
1c
0P
0E
1R
0T
1i
17
1'
0V
04
0$
#990000
b1100 "
b1100 #
b100 "
b101 "
b1101 #
1G
0H
1@
0?
0=
0-
0h
1g
1b
0Q
1_
1P
1E
0R
1`
1T
0i
07
0'
1f
1V
16
14
1&
1$
