simulation/qsim/trabFinal.msim.vcd
$comment
	File created using the following command:
		vcd file trabFinal.msim.vcd -direction
$end
$date
	Wed Feb 21 08:31:25 2024
$end
$version
	ModelSim Version 10.1d
$end
$timescale
	1ps
$end
$scope module trabFinal_vlg_vec_tst $end
$var reg 1 ! ck $end
$var reg 1 " ck_man $end
$var reg 1 # ctrl_mux $end
$var reg 4 $ d [3:0] $end
$var reg 1 % rst $end
$var reg 3 & v [2:0] $end
$var reg 2 ' w [1:0] $end
$var wire 1 ( cki $end
$var wire 1 ) ha0 $end
$var wire 1 * ha1 $end
$var wire 1 + ha2 $end
$var wire 1 , ha3 $end
$var wire 1 - ha4 $end
$var wire 1 . ha5 $end
$var wire 1 / ha6 $end
$var wire 1 0 haNeg $end
$var wire 1 1 hb0 $end
$var wire 1 2 hb1 $end
$var wire 1 3 hb2 $end
$var wire 1 4 hb3 $end
$var wire 1 5 hb4 $end
$var wire 1 6 hb5 $end
$var wire 1 7 hb6 $end
$var wire 1 8 hbNeg $end
$var wire 1 9 q [3] $end
$var wire 1 : q [2] $end
$var wire 1 ; q [1] $end
$var wire 1 < q [0] $end
$var wire 1 = s [3] $end
$var wire 1 > s [2] $end
$var wire 1 ? s [1] $end
$var wire 1 @ s [0] $end
$var wire 1 A ZNCBV [4] $end
$var wire 1 B ZNCBV [3] $end
$var wire 1 C ZNCBV [2] $end
$var wire 1 D ZNCBV [1] $end
$var wire 1 E ZNCBV [0] $end
$var wire 1 F sampler $end
$scope module i1 $end
$var wire 1 G gnd $end
$var wire 1 H vcc $end
$var wire 1 I unknown $end
$var tri1 1 J devclrn $end
$var tri1 1 K devpor $end
$var tri1 1 L devoe $end
$var wire 1 M ha0~output_o $end
$var wire 1 N q[3]~output_o $end
$var wire 1 O q[2]~output_o $end
$var wire 1 P q[1]~output_o $end
$var wire 1 Q q[0]~output_o $end
$var wire 1 R ha1~output_o $end
$var wire 1 S ha2~output_o $end
$var wire 1 T ha6~output_o $end
$var wire 1 U ha3~output_o $end
$var wire 1 V ha4~output_o $end
$var wire 1 W ha5~output_o $end
$var wire 1 X hb0~output_o $end
$var wire 1 Y s[3]~output_o $end
$var wire 1 Z s[2]~output_o $end
$var wire 1 [ s[1]~output_o $end
$var wire 1 \ s[0]~output_o $end
$var wire 1 ] hb1~output_o $end
$var wire 1 ^ hb2~output_o $end
$var wire 1 _ hb3~output_o $end
$var wire 1 ` hb4~output_o $end
$var wire 1 a hb5~output_o $end
$var wire 1 b hb6~output_o $end
$var wire 1 c haNeg~output_o $end
$var wire 1 d hbNeg~output_o $end
$var wire 1 e cki~output_o $end
$var wire 1 f ZNCBV[4]~output_o $end
$var wire 1 g ZNCBV[3]~output_o $end
$var wire 1 h ZNCBV[2]~output_o $end
$var wire 1 i ZNCBV[1]~output_o $end
$var wire 1 j ZNCBV[0]~output_o $end
$var wire 1 k w[1]~input_o $end
$var wire 1 l ctrl_mux~input_o $end
$var wire 1 m ck_man~input_o $end
$var wire 1 n ck~input_o $end
$var wire 1 o inst1|inst|inst|inst~0_combout $end
$var wire 1 p inst1|inst|inst|inst~feeder_combout $end
$var wire 1 q rst~input_o $end
$var wire 1 r inst1|inst|inst|inst~q $end
$var wire 1 s inst1|inst|inst1254|inst~0_combout $end
$var wire 1 t inst1|inst|inst1254|inst~q $end
$var wire 1 u inst1|inst|inst4|inst~0_combout $end
$var wire 1 v inst1|inst|inst4|inst~feeder_combout $end
$var wire 1 w inst1|inst|inst4|inst~q $end
$var wire 1 x inst1|inst|inst5|inst~0_combout $end
$var wire 1 y inst1|inst|inst5|inst~q $end
$var wire 1 z inst1|inst|inst6|inst~0_combout $end
$var wire 1 { inst1|inst|inst6|inst~feeder_combout $end
$var wire 1 | inst1|inst|inst6|inst~q $end
$var wire 1 } inst1|inst2|inst|inst~0_combout $end
$var wire 1 ~ inst1|inst2|inst|inst~q $end
$var wire 1 !! inst1|inst2|inst1254|inst~0_combout $end
$var wire 1 "! inst1|inst2|inst1254|inst~feeder_combout $end
$var wire 1 #! inst1|inst2|inst1254|inst~q $end
$var wire 1 $! inst1|inst2|inst4|inst~0_combout $end
$var wire 1 %! inst1|inst2|inst4|inst~q $end
$var wire 1 &! inst1|inst2|inst5|inst~0_combout $end
$var wire 1 '! inst1|inst2|inst5|inst~feeder_combout $end
$var wire 1 (! inst1|inst2|inst5|inst~q $end
$var wire 1 )! inst1|inst2|inst6|inst~0_combout $end
$var wire 1 *! inst1|inst2|inst6|inst~feeder_combout $end
$var wire 1 +! inst1|inst2|inst6|inst~q $end
$var wire 1 ,! inst1|inst3|inst|inst~0_combout $end
$var wire 1 -! inst1|inst3|inst|inst~q $end
$var wire 1 .! inst1|inst3|inst1254|inst~0_combout $end
$var wire 1 /! inst1|inst3|inst1254|inst~q $end
$var wire 1 0! inst1|inst3|inst4|inst~0_combout $end
$var wire 1 1! inst1|inst3|inst4|inst~feeder_combout $end
$var wire 1 2! inst1|inst3|inst4|inst~q $end
$var wire 1 3! inst1|inst3|inst5|inst~0_combout $end
$var wire 1 4! inst1|inst3|inst5|inst~q $end
$var wire 1 5! inst1|inst3|inst6|inst~0_combout $end
$var wire 1 6! inst1|inst3|inst6|inst~feeder_combout $end
$var wire 1 7! inst1|inst3|inst6|inst~q $end
$var wire 1 8! inst1|inst4|inst|inst~0_combout $end
$var wire 1 9! inst1|inst4|inst|inst~q $end
$var wire 1 :! inst1|inst4|inst1254|inst~0_combout $end
$var wire 1 ;! inst1|inst4|inst1254|inst~feeder_combout $end
$var wire 1 <! inst1|inst4|inst1254|inst~q $end
$var wire 1 =! inst1|inst4|inst4|inst~0_combout $end
$var wire 1 >! inst1|inst4|inst4|inst~q $end
$var wire 1 ?! inst1|inst4|inst5|inst~0_combout $end
$var wire 1 @! inst1|inst4|inst5|inst~feeder_combout $end
$var wire 1 A! inst1|inst4|inst5|inst~q $end
$var wire 1 B! inst1|inst4|inst6|inst~0_combout $end
$var wire 1 C! inst1|inst4|inst6|inst~q $end
$var wire 1 D! inst1|inst6|inst|inst~0_combout $end
$var wire 1 E! inst1|inst6|inst|inst~feeder_combout $end
$var wire 1 F! inst1|inst6|inst|inst~q $end
$var wire 1 G! inst1|inst6|inst1254|inst~0_combout $end
$var wire 1 H! inst1|inst6|inst1254|inst~q $end
$var wire 1 I! inst1|inst6|inst4|inst~0_combout $end
$var wire 1 J! inst1|inst6|inst4|inst~feeder_combout $end
$var wire 1 K! inst1|inst6|inst4|inst~q $end
$var wire 1 L! inst1|inst6|inst5|inst~0_combout $end
$var wire 1 M! inst1|inst6|inst5|inst~q $end
$var wire 1 N! inst1|inst6|inst6|inst~0_combout $end
$var wire 1 O! inst1|inst6|inst6|inst~q $end
$var wire 1 P! inst222|inst2~combout $end
$var wire 1 Q! inst222|inst2~clkctrl_outclk $end
$var wire 1 R! inst62|inst|inst~0_combout $end
$var wire 1 S! inst62|inst|inst~q $end
$var wire 1 T! d[0]~input_o $end
$var wire 1 U! w[0]~input_o $end
$var wire 1 V! inst62|inst3|inst6~1_combout $end
$var wire 1 W! inst62|inst3|inst6~2_combout $end
$var wire 1 X! inst62|inst|inst56~combout $end
$var wire 1 Y! inst62|inst|inst13~q $end
$var wire 1 Z! inst62|inst2|inst13~0_combout $end
$var wire 1 [! inst62|inst2|inst13~q $end
$var wire 1 \! inst62|inst4|inst6~1_combout $end
$var wire 1 ]! d[1]~input_o $end
$var wire 1 ^! inst62|inst4|inst6~2_combout $end
$var wire 1 _! inst62|inst|inst17~combout $end
$var wire 1 `! inst62|inst|inst131~q $end
$var wire 1 a! inst62|inst|inst15~combout $end
$var wire 1 b! inst62|inst|inst50~q $end
$var wire 1 c! inst62|inst6|inst6~1_combout $end
$var wire 1 d! d[3]~input_o $end
$var wire 1 e! inst62|inst2|inst131~0_combout $end
$var wire 1 f! inst62|inst2|inst131~q $end
$var wire 1 g! inst62|inst2|inst50~0_combout $end
$var wire 1 h! inst62|inst2|inst50~q $end
$var wire 1 i! inst62|inst6|inst6~2_combout $end
$var wire 1 j! d[2]~input_o $end
$var wire 1 k! inst62|inst5|inst6~1_combout $end
$var wire 1 l! inst62|inst5|inst6~2_combout $end
$var wire 1 m! inst00|inst|inst17~2_combout $end
$var wire 1 n! inst00|inst1|inst17~4_combout $end
$var wire 1 o! inst00|inst2|inst17~4_combout $end
$var wire 1 p! inst00|inst6|inst17~2_combout $end
$var wire 1 q! inst00|inst3|inst17~6_combout $end
$var wire 1 r! inst00|inst4|inst17~0_combout $end
$var wire 1 s! inst00|inst5|inst17~2_combout $end
$var wire 1 t! v[0]~input_o $end
$var wire 1 u! v[1]~input_o $end
$var wire 1 v! inst|inst200|inst17~2_combout $end
$var wire 1 w! v[2]~input_o $end
$var wire 1 x! inst|inst200|inst17~3_combout $end
$var wire 1 y! inst|inst21|inst1|inst1|inst4~combout $end
$var wire 1 z! inst|inst21|inst1|inst2|inst4~combout $end
$var wire 1 {! inst|inst200|inst17~0_combout $end
$var wire 1 |! inst|inst200|inst17~1_combout $end
$var wire 1 }! inst|inst19|inst1|inst3|inst1~combout $end
$var wire 1 ~! inst|inst200|inst22~combout $end
$var wire 1 !" inst|inst40~0_combout $end
$var wire 1 "" inst|inst20|inst1|inst1|inst4~0_combout $end
$var wire 1 #" inst|inst21|inst1|inst3|inst~0_combout $end
$var wire 1 $" inst|inst20|inst1|inst3|inst1~combout $end
$var wire 1 %" inst|inst27~0_combout $end
$var wire 1 &" inst|inst200|inst17~4_combout $end
$var wire 1 '" inst|inst200|inst17~5_combout $end
$var wire 1 (" inst|inst39~0_combout $end
$var wire 1 )" inst|inst2|inst23~combout $end
$var wire 1 *" inst|inst19|inst1|inst2|inst1~combout $end
$var wire 1 +" inst|inst28~0_combout $end
$var wire 1 ," inst|inst2|inst25~combout $end
$var wire 1 -" inst|inst2|inst17~0_combout $end
$var wire 1 ." inst|inst2|inst17~1_combout $end
$var wire 1 /" inst|inst2|inst17~2_combout $end
$var wire 1 0" inst|inst2|inst17~3_combout $end
$var wire 1 1" inst|inst6|inst17~1_combout $end
$var wire 1 2" inst|inst6|inst17~2_combout $end
$var wire 1 3" inst|inst6|inst17~3_combout $end
$var wire 1 4" inst|inst21|inst1|inst1|inst1~combout $end
$var wire 1 5" inst|inst19|inst1|inst1|inst1~combout $end
$var wire 1 6" inst|inst20|inst1|inst1|inst1~combout $end
$var wire 1 7" inst|inst6|inst17~0_combout $end
$var wire 1 8" inst|inst6|inst17~4_combout $end
$var wire 1 9" inst|inst51|inst17~1_combout $end
$var wire 1 :" inst|inst51|inst17~0_combout $end
$var wire 1 ;" inst|inst51|inst17~2_combout $end
$var wire 1 <" inst72|inst3|inst26~1_combout $end
$var wire 1 =" inst72|inst3|inst17~2_combout $end
$var wire 1 >" inst72|inst3|inst26~0_combout $end
$var wire 1 ?" inst72|inst3|inst17~3_combout $end
$var wire 1 @" inst72|inst|inst17~combout $end
$var wire 1 A" inst72|inst1|inst17~4_combout $end
$var wire 1 B" inst72|inst2|inst17~4_combout $end
$var wire 1 C" inst72|inst2|inst26~0_combout $end
$var wire 1 D" inst72|inst3|inst26~2_combout $end
$var wire 1 E" inst72|inst3|inst17~5_combout $end
$var wire 1 F" inst72|inst3|inst17~4_combout $end
$var wire 1 G" inst72|inst4|inst17~0_combout $end
$var wire 1 H" inst72|inst3|inst26~3_combout $end
$var wire 1 I" inst72|inst5|inst17~0_combout $end
$var wire 1 J" inst72|inst5|inst17~1_combout $end
$var wire 1 K" inst72|inst5|inst17~2_combout $end
$var wire 1 L" inst72|inst6|inst17~4_combout $end
$var wire 1 M" inst72|inst6|inst17~5_combout $end
$var wire 1 N" inst|inst54~combout $end
$var wire 1 O" inst|inst20|inst1|inst2|inst4~0_combout $end
$var wire 1 P" inst|inst20|inst1|inst3|inst4~0_combout $end
$var wire 1 Q" inst|inst27~combout $end
$var wire 1 R" inst|inst60~0_combout $end
$var wire 1 S" inst|inst28~combout $end
$var wire 1 T" inst|inst39~1_combout $end
$var wire 1 U" inst|inst60~combout $end
$var wire 1 V" inst|inst16~combout $end
$var wire 1 W" inst|inst13~0_combout $end
$var wire 1 X" inst|inst13~1_combout $end
$var wire 1 Y" inst|inst13~2_combout $end
$var wire 1 Z" inst|inst15~combout $end
$upscope $end
$upscope $end
$enddefinitions $end
#0
$dumpvars
0!
0"
1#
b0 $
0%
b0 &
b0 '
0(
x)
x*
x+
x,
x-
x.
x/
x0
x1
x2
x3
x4
x5
x6
x7
x8
x<
x;
x:
x9
x@
x?
x>
x=
xE
xD
0C
0B
0A
xF
0G
1H
xI
1J
1K
1L
xM
xN
xO
xP
xQ
xR
xS
xT
xU
xV
xW
xX
xY
xZ
x[
x\
x]
x^
x_
x`
xa
xb
xc
xd
0e
0f
0g
0h
xi
xj
0k
1l
0m
0n
1o
1p
0q
0r
1s
0t
1u
1v
0w
1x
0y
1z
1{
0|
1}
0~
1!!
1"!
0#!
1$!
0%!
1&!
1'!
0(!
1)!
1*!
0+!
1,!
0-!
1.!
0/!
10!
11!
02!
13!
04!
15!
16!
07!
18!
09!
1:!
1;!
0<!
1=!
0>!
1?!
1@!
0A!
1B!
0C!
1D!
1E!
0F!
1G!
0H!
1I!
1J!
0K!
1L!
0M!
1N!
0O!
0P!
0Q!
1R!
0S!
0T!
0U!
xV!
xW!
1X!
0Y!
0Z!
0[!
x\!
0]!
x^!
1_!
0`!
1a!
0b!
xc!
0d!
0e!
0f!
0g!
0h!
xi!
0j!
xk!
xl!
xm!
xn!
xo!
xp!
xq!
xr!
xs!
0t!
0u!
xv!
0w!
xx!
1y!
1z!
0{!
0|!
x}!
0~!
0!"
0""
x#"
x$"
0%"
0&"
x'"
0("
0)"
x*"
0+"
0,"
x-"
x."
x/"
x0"
x1"
x2"
03"
x4"
x5"
x6"
07"
x8"
x9"
0:"
x;"
x<"
x="
x>"
x?"
x@"
xA"
xB"
xC"
xD"
xE"
xF"
xG"
xH"
xI"
xJ"
xK"
xL"
xM"
0N"
0O"
0P"
0Q"
0R"
0S"
xT"
0U"
1V"
xW"
xX"
0Y"
xZ"
$end
#2000
1!
1n
0F
1r
0o
0p
1t
0s
1w
0u
0v
1y
0x
1|
0z
0{
1~
0}
1#!
0!!
0"!
1%!
0$!
1(!
0&!
0'!
1+!
0)!
0*!
1-!
0,!
1/!
0.!
12!
00!
01!
14!
03!
17!
05!
06!
19!
08!
1<!
0:!
0;!
1>!
0=!
1A!
0?!
0@!
1C!
0B!
1F!
0D!
0E!
1H!
0G!
1K!
0I!
0J!
1M!
0L!
1O!
0N!
#4000
0!
0n
1F
#6000
1!
1n
0F
0r
1o
1p
#8000
0!
0n
1F
#10000
1%
1"
1!
1q
1m
1n
0F
1P!
1Q!
1e
1(
0t
0w
0y
0|
0~
0#!
0%!
0(!
0+!
0-!
0/!
02!
04!
07!
09!
0<!
0>!
0A!
0C!
0F!
0H!
0K!
0M!
0O!
1s
1u
1x
1z
1}
1!!
1$!
1&!
1)!
1,!
1.!
10!
13!
15!
18!
1:!
1=!
1?!
1B!
1D!
1G!
1I!
1L!
1N!
1v
1{
1"!
1'!
1*!
11!
16!
1;!
1@!
1E!
1J!
#12000
0!
0n
1F
#14000
1!
1n
0F
#16000
0!
0n
1F
#18000
1!
1n
0F
#20000
0%
0"
0!
0q
0m
0n
1F
0P!
0Q!
0e
0(
#22000
1!
1n
0F
1r
0o
0p
1t
0s
1w
0u
0v
1y
0x
1|
0z
0{
1~
0}
1#!
0!!
0"!
1%!
0$!
1(!
0&!
0'!
1+!
0)!
0*!
1-!
0,!
1/!
0.!
12!
00!
01!
14!
03!
17!
05!
06!
19!
08!
1<!
0:!
0;!
1>!
0=!
1A!
0?!
0@!
1C!
0B!
1F!
0D!
0E!
1H!
0G!
1K!
0I!
0J!
1M!
0L!
1O!
0N!
#24000
0!
0n
1F
#26000
1!
1n
0F
0r
1o
1p
#28000
0!
0n
1F
#30000
1"
1!
1m
1n
0F
1P!
1Q!
1e
1(
1b!
1`!
1Y!
1S!
1r
1Z!
0R!
0o
0p
0t
1s
#32000
0!
0n
1F
#34000
1!
1n
0F
0r
1o
1p
#36000
0!
0n
1F
#38000
1!
1n
0F
1r
0o
0p
1t
0s
0w
1u
1v
#40000
b1000 $
b1010 $
b1011 $
0"
0!
1T!
1]!
1d!
0m
0n
1F
x:"
x""
xy!
xP"
0P!
0Q!
xO"
xz!
0e
0(
#42000
1!
1n
0F
0r
1o
1p
#44000
0!
0n
1F
#46000
1!
1n
0F
1r
0o
0p
0t
1s
#48000
0!
0n
1F
#50000
b1 &
1"
1!
1t!
1m
1n
0F
1:"
0-"
1P!
1Q!
0."
1e
1(
0/"
00"
0D"
0="
0<"
0Z
0>
1[!
0S!
0r
0X!
1R!
1o
1p
#52000
0!
0n
1F
#54000
1!
1n
0F
1r
0o
0p
1t
0s
1w
0u
0v
0y
1x
#56000
0!
0n
1F
#58000
1!
1n
0F
0r
1o
1p
#60000
0"
0!
0m
0n
1F
0P!
0Q!
0e
0(
#62000
1!
1n
0F
1r
0o
0p
0t
1s
#64000
0!
0n
1F
#66000
1!
1n
0F
0r
1o
1p
#68000
0!
0n
1F
#70000
1"
1!
1m
1n
0F
1P!
1Q!
1e
1(
0Y!
1S!
1r
1e!
0Z!
0R!
0o
0p
1t
0s
0w
1u
1v
#72000
0!
0n
1F
#74000
1!
1n
0F
0r
1o
1p
#76000
0!
0n
1F
#78000
1!
1n
0F
1r
0o
0p
0t
1s
#80000
b1 '
b1111 $
b111 $
b110 $
0"
0!
0T!
1j!
0d!
1U!
0m
0n
1F
x:"
09"
0V!
xN"
x-"
0v!
0k!
0c!
1\!
0i!
1W!
0P!
0Q!
0P"
x."
0x!
0T"
0#"
1}!
1o!
1W"
0:"
0c
0N
1Q
0e
00
09
1<
0(
0;"
0l!
1^!
1r!
0X"
x/"
0N"
0-"
1*"
0z!
0s!
1q!
1p!
1n!
1m!
06"
05"
14"
11"
1""
1y!
0S
0\
0O
1P
1V
0+
0@
0:
1;
1-
0'"
0G"
0."
12"
1O"
1$"
0H"
0C"
1A"
1W
0U
0T
0R
0M
0i
0d
0Y
0`
1.
0,
0/
0*
0)
0D
08
0=
05
x0"
0/"
1I"
xD"
xA"
0]
xZ
02
x>
18"
xG"
xI"
1Z"
1J"
1@"
0>"
x]
1[
x`
x2
1?
x5
00"
0G"
1?"
1L"
1E"
0D"
0B"
1A"
0j
0X
0Z
0`
0E
01
0>
05
1F"
1M"
1I"
1^
0]
13
02
0K"
0_
0b
04
07
1a
16
#82000
1!
1n
0F
0r
1o
1p
#84000
0!
0n
1F
#86000
1!
1n
0F
1r
0o
0p
1t
0s
1w
0u
0v
1y
0x
0|
1z
1{
#88000
0!
0n
1F
#90000
1"
1!
1m
1n
0F
1P!
1Q!
1e
1(
1f!
0[!
0S!
0r
0\!
0_!
1X!
1R!
1o
1l!
0W!
1p
1N"
1-"
0*"
1z!
1s!
0n!
1:"
15"
1O
0Q
1:
0<
0^!
0r!
1."
16"
05"
04"
01"
1*"
0""
0y!
0q!
1n!
0m!
0W
1R
0P
0V
0.
1*
0;
0-
1r!
1/"
02"
0O"
0z!
1U
0R
1M
1V
1,
0*
1)
1-
10"
08"
0E"
1B"
0@"
0J"
1Z
0[
1>
0?
1G"
0F"
1K"
0^
1X
1`
03
11
15
1_
0a
14
06
#92000
0!
0n
1F
#94000
1!
1n
0F
1r
0o
0p
0t
1s
#96000
0!
0n
1F
#98000
1!
1n
0F
0r
1o
1p
#100000
b11 &
b10 &
0"
0!
0t!
1u!
0m
0n
1F
1X"
0:"
13"
11"
1;"
0P!
0Q!
12"
0A"
1="
1\
0e
1@
0(
0;"
18"
0?"
0L"
1J"
1D"
0="
1@"
1]
0\
1[
12
0@
1?
0G"
1F"
0K"
0I"
1?"
0X
0`
01
05
1K"
0_
1a
04
16
0a
06
#102000
1!
1n
0F
1r
0o
0p
1t
0s
0w
1u
1v
#104000
0!
0n
1F
#106000
1!
1n
0F
0r
1o
1p
#108000
0!
0n
1F
#110000
1"
1!
1m
1n
0F
1P!
1Q!
1e
1(
0`!
1Y!
1S!
1r
1Z!
0R!
0o
1W!
0p
19"
15"
0*"
1q!
0n!
1m!
1Q
1<
0U
1R
0M
0,
1*
0)
1;"
0D"
1A"
1\
1@
1G"
0M"
1I"
0F"
0]
1`
02
15
0K"
1b
1_
17
14
1a
16
0t
1s
#112000
0!
0n
1F
#114000
1!
1n
0F
0r
1o
1p
#116000
0!
0n
1F
#118000
1!
1n
0F
1r
0o
0p
1t
0s
1w
0u
0v
0y
1x
#120000
b100 $
b0 $
b1 $
0"
0!
1T!
0]!
0j!
0m
0n
1F
14"
1y!
03"
01"
0N"
0$"
1z!
0P!
0Q!
02"
0e
0(
08"
1L"
0J"
0A"
0@"
1="
0[
0?
1M"
1K"
0?"
1]
1X
12
11
1F"
1@"
0b
0a
07
06
0_
0X
04
01
#122000
1!
1n
0F
0r
1o
1p
#124000
0!
0n
1F
#126000
1!
1n
0F
1r
0o
0p
0t
1s
#128000
0!
0n
1F
#130000
1"
1!
1m
1n
0F
1P!
1Q!
1e
1(
1[!
0S!
0r
1\!
0X!
1R!
1o
0W!
1p
1:"
09"
06"
05"
04"
1*"
0y!
0q!
1n!
0m!
0Q
0<
1^!
16"
15"
14"
11"
0*"
1y!
1q!
0n!
1m!
1U
0R
1M
1P
1,
0*
1)
1;
0r!
12"
0U
1R
0M
0V
0,
1*
0)
0-
18"
0L"
1J"
1A"
0="
1[
1?
0M"
0K"
1?"
0]
02
0F"
1b
1a
17
16
1_
14
#132000
0!
0n
1F
#134000
1!
1n
0F
1r
0o
0p
1t
0s
0w
1u
1v
#136000
0!
0n
1F
#138000
1!
1n
0F
0r
1o
1p
#140000
0"
0!
0m
0n
1F
0P!
0Q!
0e
0(
#142000
1!
1n
0F
1r
0o
0p
0t
1s
#144000
0!
0n
1F
#146000
1!
1n
0F
0r
1o
1p
#148000
0!
0n
1F
#150000
b11 &
1"
1!
1t!
1m
1n
0F
0X"
01"
0-"
1v!
1P!
1Q!
02"
0."
1x!
1e
1(
0/"
08"
1'"
1L"
0@"
1="
0[
1i
1d
1Y
0?
1D
18
1=
00"
1M"
0?"
0L"
1@"
0="
1X
0Z
11
0>
1F"
0M"
1?"
0b
0X
07
01
0F"
0_
1b
04
17
1_
14
0Y!
1S!
1r
1g!
0e!
0Z!
0R!
0o
1W!
0p
19"
06"
05"
04"
1""
0s!
0q!
0p!
1n!
1Q
1<
1r!
1O"
1$"
1W
1U
1T
0R
1V
1.
1,
1/
0*
1-
0;"
0J"
1H"
1E"
0\
0@
0G"
1M"
0I"
1F"
0`
05
1K"
0b
0_
07
04
0a
06
1t
0s
1w
0u
0v
1y
0x
1|
0z
0{
0~
1}
#152000
0!
0n
1F
#154000
1!
1n
0F
0r
1o
1p
#156000
0!
0n
1F
#158000
1!
1n
0F
1r
0o
0p
0t
1s
#160000
b11 '
b10 '
b1001 $
b1101 $
b1100 $
0"
0!
0T!
1j!
1d!
0U!
1k
0m
0n
1F
0:"
09"
16"
0""
1N"
1P"
1#"
1c!
0\!
0l!
0^!
0P!
0Q!
0O"
0N"
1-"
1*"
0z!
0m!
06"
15"
14"
11"
0O
0P
0e
0:
0;
0(
1i!
1."
12"
1X"
0#"
0}!
0v!
1m!
1M
1c
1N
1)
10
19
1/"
0$"
0x!
0M
0)
18"
1J"
0H"
0E"
1C"
0A"
1[
1?
10"
0'"
1D"
0C"
1]
1Z
0i
0d
0Y
12
1>
0D
08
0=
#162000
1!
1n
0F
0r
1o
1p
#164000
0!
0n
1F
#166000
1!
1n
0F
1r
0o
0p
1t
0s
0w
1u
1v
#168000
0!
0n
1F
#170000
1"
1!
1m
1n
0F
1P!
1Q!
1e
1(
1h!
0f!
0[!
0S!
0r
0a!
1_!
1X!
1R!
1o
0W!
1p
0W"
1T"
1:"
05"
0*"
1}!
1s!
1q!
1p!
0Q
0<
0r!
0W
0U
0T
0V
0.
0,
0/
0-
1;"
0D"
1A"
1\
1@
1G"
0M"
1I"
0F"
0]
1`
02
15
0K"
1b
1_
17
14
1a
16
#172000
0!
0n
1F
#174000
1!
1n
0F
1r
0o
0p
0t
1s
#176000
0!
0n
1F
#178000
1!
1n
0F
0r
1o
1p
#180000
0"
0!
0m
0n
1F
0P!
0Q!
0e
0(
#182000
1!
1n
0F
1r
0o
0p
1t
0s
1w
0u
0v
0y
1x
#184000
0!
0n
1F
#186000
1!
1n
0F
0r
1o
1p
#188000
0!
0n
1F
#190000
1"
1!
1m
1n
0F
1P!
1Q!
1e
1(
0b!
1`!
1Y!
1S!
1r
0c!
1k!
1Z!
0R!
0o
1^!
1W!
0p
1W"
0T"
16"
04"
01"
1*"
0}!
0n!
0:"
1P
1Q
1;
1<
0i!
1l!
1r!
02"
0X"
0P"
1#"
1}!
1v!
0s!
0p!
1n!
1N"
0-"
0*"
1$"
1z!
0q!
1R
0c
0N
1O
1V
1*
00
09
1:
1-
0;"
0$"
1x!
1P"
0."
1D"
0A"
1W
1T
0R
1U
0\
1.
1/
0*
1,
0@
08"
0G"
0/"
1M"
0I"
1F"
1L"
0J"
0D"
1A"
0@"
1]
0[
0`
12
0?
05
1'"
1G"
1K"
1I"
0F"
0b
0_
0]
1X
1i
1d
1Y
1`
07
04
02
11
1D
18
1=
15
00"
0K"
0L"
1H"
1E"
1@"
0a
1_
0Z
06
14
0>
0G"
0I"
1F"
1a
0X
0`
16
01
05
1K"
0_
04
0a
06
0t
1s
#192000
0!
0n
1F
#194000
1!
1n
0F
0r
1o
1p
#196000
0!
0n
1F
#198000
1!
1n
0F
1r
0o
0p
1t
0s
0w
1u
1v
#200000
b111 &
b101 &
b1110 $
b100 &
b110 $
b111 $
0"
0!
1T!
1]!
0d!
0t!
0u!
1w!
0m
0n
1F
1:"
19"
14"
1""
11"
0P"
0#"
0v!
1-"
1("
1~!
0x!
0P!
0Q!
1O"
1$"
0e
0(
1;"
1J"
0H"
0E"
1\
1@
1G"
0M"
1I"
0F"
1`
15
0K"
1b
1_
17
14
1a
16
#202000
1!
1n
0F
0r
1o
1p
#204000
0!
0n
1F
#206000
1!
1n
0F
1r
0o
0p
0t
1s
#208000
0!
0n
1F
#210000
1"
1!
1m
1n
0F
1P!
1Q!
1e
1(
1[!
0S!
0r
0X!
1R!
1o
0W!
1p
09"
06"
15"
04"
0y!
1s!
1q!
1p!
0n!
0Q
0<
0r!
17"
0z!
0W
0U
0T
1R
0V
0.
0,
0/
1*
0-
0;"
0J"
1H"
1E"
0\
0@
18"
0G"
1M"
0I"
1F"
1J"
0H"
0E"
1C"
0A"
1[
0`
1?
05
1K"
0b
0_
1]
07
04
12
0a
06
#212000
0!
0n
1F
#214000
1!
1n
0F
1r
0o
0p
1t
0s
1w
0u
0v
1y
0x
0|
1z
1{
#216000
0!
0n
1F
#218000
1!
1n
0F
0r
1o
1p
#220000
0"
0!
0m
0n
1F
0P!
0Q!
0e
0(
#222000
1!
1n
0F
1r
0o
0p
0t
1s
#224000
0!
0n
1F
#226000
1!
1n
0F
0r
1o
1p
#228000
0!
0n
1F
#230000
1"
1!
1m
1n
0F
1P!
1Q!
1e
1(
0Y!
1S!
1r
1e!
0Z!
0R!
0o
0^!
1W!
0p
01"
19"
0P
1Q
0;
1<
1r!
1V
1-
1;"
1\
1@
1G"
1`
15
1t
0s
0w
1u
1v
#232000
0!
0n
1F
#234000
1!
1n
0F
0r
1o
1p
#236000
0!
0n
1F
#238000
1!
1n
0F
1r
0o
0p
0t
1s
#240000
b11 '
b11 $
b10 $
0"
0!
0T!
0j!
1U!
0m
0n
1F
0:"
16"
0""
0N"
1z!
1c!
1\!
0l!
1i!
0W!
0P!
0Q!
0O"
0$"
1P"
0W"
1T"
0-"
0z!
1n!
1X"
1#"
1v!
09"
05"
0O
1c
1N
0Q
0e
0:
10
19
0<
0(
0i!
1^!
0r!
0P"
0X"
1$"
07"
0T"
0#"
0v!
0s!
0o!
1W"
06"
15"
14"
11"
1*"
1""
1y!
0R
0c
0N
1P
0V
0*
00
09
1;
0-
1U"
0;"
0$"
17"
1z!
1W
1S
1f
0\
1.
1+
1A
0@
08"
0U"
10"
0G"
1L"
0J"
0C"
1A"
0@"
0[
0f
1Z
0`
0?
0A
1>
05
18"
1G"
1I"
0F"
1J"
0B"
1<"
0]
1X
1[
1`
02
11
1?
15
0G"
0K"
0?"
1_
1^
0`
14
13
05
1F"
1@"
1a
16
0_
0X
04
01
#242000
1!
1n
0F
0r
1o
1p
#244000
0!
0n
1F
#246000
1!
1n
0F
1r
0o
0p
1t
0s
1w
0u
0v
0y
1x
#248000
0!
0n
1F
#250000
0#
b101 &
1"
1!
0l
1t!
1m
1n
0F
0("
1%"
0~!
1P!
1Q!
07"
1)"
1e
1(
00"
0'"
1E"
0<"
0Z
0i
0d
0Y
0>
0D
08
0=
08"
10"
1?"
0J"
0E"
1B"
0[
1Z
0?
1>
1G"
0F"
0@"
1K"
0^
1`
03
15
1_
1X
0a
14
11
06
1f!
0[!
0S!
0r
0_!
1X!
1R!
1o
1p
#252000
0!
0n
1F
#254000
1!
1n
0F
1r
0o
0p
0t
1s
#256000
0!
0n
1F
#258000
1!
1n
0F
0r
1o
1p
#260000
0"
0!
0m
0n
1F
#262000
1!
1n
0F
1r
0o
0p
1t
0s
0w
1u
1v
#264000
0!
0n
1F
#266000
1!
1n
0F
0r
1o
1p
#268000
0!
0n
1F
#270000
1"
1!
1m
1n
0F
1r
0o
0p
0t
1s
#272000
0!
0n
1F
#274000
1!
1n
0F
0r
1o
1p
#276000
0!
0n
1F
#278000
1!
1n
0F
1r
0o
0p
1t
0s
1w
0u
0v
1y
0x
1|
0z
0{
1~
0}
0#!
1!!
1"!
